NTRU/NTRU_BD_XS/MS2XS_01.xpr/MS2XS_01/.Xil/Vivado-7780-DESKTOP-5LLJN45/hw_ila_data_1/zip_work/waveform.vcd
$date
        2022-Aug-10 01:34:57
$end
$version
        Vivado v2020.2 (64-bit)
$end
$timescale
        1ps
$end
$scope module dut $end
$var reg 32 " BD_i/system_ila_0/inst/net_slot_0_axis_tdata [31:0] $end
$var reg 4 B BD_i/system_ila_0/inst/net_slot_0_axis_tkeep [3:0] $end
$var reg 1 F BD_i/system_ila_0/inst/net_slot_0_axis_tvalid $end
$var reg 1 G BD_i/system_ila_0/inst/net_slot_0_axis_tready $end
$var reg 1 H BD_i/system_ila_0/inst/net_slot_0_axis_tlast $end
$var reg 32 I BD_i/system_ila_0/inst/net_slot_1_axis_tdata [31:0] $end
$var reg 1 i BD_i/system_ila_0/inst/net_slot_1_axis_tvalid $end
$var reg 1 j BD_i/system_ila_0/inst/net_slot_1_axis_tready $end
$var reg 1 k BD_i/system_ila_0/inst/net_slot_1_axis_tlast $end
$var reg 32 l BD_i/system_ila_0/inst/net_slot_2_axis_tdata [31:0] $end
$var reg 2 ." BD_i/system_ila_0/inst/net_slot_2_axis_tdest [1:0] $end
$var reg 1 0" BD_i/system_ila_0/inst/net_slot_2_axis_tvalid $end
$var reg 1 1" BD_i/system_ila_0/inst/net_slot_2_axis_tready $end
$var reg 1 2" BD_i/system_ila_0/inst/net_slot_2_axis_tlast $end
$var reg 32 3" BD_i/system_ila_0/inst/net_slot_3_axis_tdata [31:0] $end
$var reg 4 S" BD_i/system_ila_0/inst/net_slot_3_axis_tkeep [3:0] $end
$var reg 1 W" BD_i/system_ila_0/inst/net_slot_3_axis_tvalid $end
$var reg 1 X" BD_i/system_ila_0/inst/net_slot_3_axis_tready $end
$var reg 1 Y" BD_i/system_ila_0/inst/net_slot_3_axis_tlast $end
$var reg 2 Z" BD_i/system_ila_0/inst/net_slot_4_axi_ar_cnt [1:0] $end
$var reg 7 \" BD_i/system_ila_0/inst/net_slot_4_axi_araddr [6:0] $end
$var reg 3 c" BD_i/system_ila_0/inst/net_slot_4_axi_arprot [2:0] $end
$var reg 2 f" BD_i/system_ila_0/inst/net_slot_4_axi_aw_cnt [1:0] $end
$var reg 7 h" BD_i/system_ila_0/inst/net_slot_4_axi_awaddr [6:0] $end
$var reg 3 o" BD_i/system_ila_0/inst/net_slot_4_axi_awprot [2:0] $end
$var reg 2 r" BD_i/system_ila_0/inst/net_slot_4_axi_b_cnt [1:0] $end
$var reg 2 t" BD_i/system_ila_0/inst/net_slot_4_axi_bresp [1:0] $end
$var reg 2 v" BD_i/system_ila_0/inst/net_slot_4_axi_r_cnt [1:0] $end
$var reg 32 x" BD_i/system_ila_0/inst/net_slot_4_axi_rdata [31:0] $end
$var reg 2 :# BD_i/system_ila_0/inst/net_slot_4_axi_rresp [1:0] $end
$var reg 32 <# BD_i/system_ila_0/inst/net_slot_4_axi_wdata [31:0] $end
$var reg 4 \# BD_i/system_ila_0/inst/net_slot_4_axi_wstrb [3:0] $end
$var reg 2 `# BD_i/system_ila_0/inst/net_slot_4_axi_aw_ctrl [1:0] $end
$var reg 1 b# BD_i/system_ila_0/inst/net_slot_4_axi_awvalid $end
$var reg 1 c# BD_i/system_ila_0/inst/net_slot_4_axi_awready $end
$var reg 1 d# BD_i/system_ila_0/inst/net_slot_4_axi_wvalid $end
$var reg 2 e# BD_i/system_ila_0/inst/net_slot_4_axi_w_ctrl [1:0] $end
$var reg 1 g# BD_i/system_ila_0/inst/net_slot_4_axi_wready $end
$var reg 1 h# BD_i/system_ila_0/inst/net_slot_4_axi_bvalid $end
$var reg 2 i# BD_i/system_ila_0/inst/net_slot_4_axi_b_ctrl [1:0] $end
$var reg 1 k# BD_i/system_ila_0/inst/net_slot_4_axi_bready $end
$var reg 2 l# BD_i/system_ila_0/inst/net_slot_4_axi_ar_ctrl [1:0] $end
$var reg 1 n# BD_i/system_ila_0/inst/net_slot_4_axi_arvalid $end
$var reg 1 o# BD_i/system_ila_0/inst/net_slot_4_axi_arready $end
$var reg 1 p# BD_i/system_ila_0/inst/net_slot_4_axi_rvalid $end
$var reg 2 q# BD_i/system_ila_0/inst/net_slot_4_axi_r_ctrl [1:0] $end
$var reg 1 s# BD_i/system_ila_0/inst/net_slot_4_axi_rready $end
$var reg 2 t# BD_i/system_ila_0/inst/net_slot_5_axi_ar_cnt [1:0] $end
$var reg 7 v# BD_i/system_ila_0/inst/net_slot_5_axi_araddr [6:0] $end
$var reg 3 }# BD_i/system_ila_0/inst/net_slot_5_axi_arprot [2:0] $end
$var reg 2 "$ BD_i/system_ila_0/inst/net_slot_5_axi_aw_cnt [1:0] $end
$var reg 7 $$ BD_i/system_ila_0/inst/net_slot_5_axi_awaddr [6:0] $end
$var reg 3 +$ BD_i/system_ila_0/inst/net_slot_5_axi_awprot [2:0] $end
$var reg 2 .$ BD_i/system_ila_0/inst/net_slot_5_axi_b_cnt [1:0] $end
$var reg 2 0$ BD_i/system_ila_0/inst/net_slot_5_axi_bresp [1:0] $end
$var reg 2 2$ BD_i/system_ila_0/inst/net_slot_5_axi_r_cnt [1:0] $end
$var reg 32 4$ BD_i/system_ila_0/inst/net_slot_5_axi_rdata [31:0] $end
$var reg 2 T$ BD_i/system_ila_0/inst/net_slot_5_axi_rresp [1:0] $end
$var reg 32 V$ BD_i/system_ila_0/inst/net_slot_5_axi_wdata [31:0] $end
$var reg 4 v$ BD_i/system_ila_0/inst/net_slot_5_axi_wstrb [3:0] $end
$var reg 2 z$ BD_i/system_ila_0/inst/net_slot_5_axi_aw_ctrl [1:0] $end
$var reg 1 |$ BD_i/system_ila_0/inst/net_slot_5_axi_awvalid $end
$var reg 1 }$ BD_i/system_ila_0/inst/net_slot_5_axi_awready $end
$var reg 1 ~$ BD_i/system_ila_0/inst/net_slot_5_axi_wvalid $end
$var reg 2 !% BD_i/system_ila_0/inst/net_slot_5_axi_w_ctrl [1:0] $end
$var reg 1 #% BD_i/system_ila_0/inst/net_slot_5_axi_wready $end
$var reg 2 $% BD_i/system_ila_0/inst/net_slot_5_axi_b_ctrl [1:0] $end
$var reg 1 &% BD_i/system_ila_0/inst/net_slot_5_axi_bvalid $end
$var reg 1 '% BD_i/system_ila_0/inst/net_slot_5_axi_bready $end
$var reg 2 (% BD_i/system_ila_0/inst/net_slot_5_axi_ar_ctrl [1:0] $end
$var reg 1 *% BD_i/system_ila_0/inst/net_slot_5_axi_arvalid $end
$var reg 1 +% BD_i/system_ila_0/inst/net_slot_5_axi_arready $end
$var reg 1 ,% BD_i/system_ila_0/inst/net_slot_5_axi_rvalid $end
$var reg 2 -% BD_i/system_ila_0/inst/net_slot_5_axi_r_ctrl [1:0] $end
$var reg 1 /% BD_i/system_ila_0/inst/net_slot_5_axi_rready $end
$var reg 3 0% AR_Channel__i1_s4___ps7_0_axi_periph_M01_AXI_ [2:0] $end
$var reg 3 3% AR_Channel__i1_s5___ps7_0_axi_periph_M02_AXI_ [2:0] $end
$var reg 3 6% AW_Channel__i1_s4___ps7_0_axi_periph_M01_AXI_ [2:0] $end
$var reg 3 9% AW_Channel__i1_s5___ps7_0_axi_periph_M02_AXI_ [2:0] $end
$var reg 3 <% B_Channel__i1_s4___ps7_0_axi_periph_M01_AXI_ [2:0] $end
$var reg 3 ?% B_Channel__i1_s5___ps7_0_axi_periph_M02_AXI_ [2:0] $end
$var reg 3 B% Interface__i1_s1___ms2xs_0_DOUT_AXIS_ [2:0] $end
$var reg 3 E% Interface__i1_s2___SEL_AXI_OUT_0_AXI_OUT_ [2:0] $end
$var reg 3 H% Interface__i1_s3___axi_dma_0_M_AXIS_MM2S_ [2:0] $end
$var reg 3 K% Interface__i1_s4___ps7_0_axi_periph_M01_AXI_ [2:0] $end
$var reg 3 N% Interface__i1_s5___ps7_0_axi_periph_M02_AXI_ [2:0] $end
$var reg 3 Q% R_Channel__i1_s4___ps7_0_axi_periph_M01_AXI_ [2:0] $end
$var reg 3 T% R_Channel__i1_s5___ps7_0_axi_periph_M02_AXI_ [2:0] $end
$var reg 3 W% T_Channel__i1_s1___ms2xs_0_DOUT_AXIS_ [2:0] $end
$var reg 3 Z% T_Channel__i1_s2___SEL_AXI_OUT_0_AXI_OUT_ [2:0] $end
$var reg 3 ]% T_Channel__i1_s3___axi_dma_0_M_AXIS_MM2S_ [2:0] $end
$var reg 3 `% W_Channel__i1_s4___ps7_0_axi_periph_M01_AXI_ [2:0] $end
$var reg 3 c% W_Channel__i1_s5___ps7_0_axi_periph_M02_AXI_ [2:0] $end
$var reg 16 f% ila_1___slot_4___ps7_0_axi_periph_M01_AXI___Write_Transactions_0 [15:0] $end
$var reg 16 v% ila_1___slot_5___ps7_0_axi_periph_M02_AXI___Write_Transactions_0 [15:0] $end
$var reg 1 (& _TRIGGER $end
$var reg 1 )& _WINDOW $end
$var reg 1 *& _GAP $end
$upscope $end
$enddefinitions $end
#0
$dumpvars
b1000000000111001111010100 "
b1111 B
0F
0G
0H
b101101001100 I
1i
0j
0k
b101101001100 l
b0 ."
10"
01"
02"
b1000000000111001111010100 3"
b1111 S"
1W"
0X"
0Y"
b0 Z"
b0 \"
b0 c"
b1 f"
b0 h"
b0 o"
b1 r"
b0 t"
b0 v"
b0 x"
b0 :#
b10 <#
b1111 \#
b0 `#
0b#
0c#
0d#
b0 e#
0g#
0h#
b10 i#
1k#
b0 l#
0n#
0o#
0p#
b10 q#
1s#
b0 t#
b0 v#
b0 }#
b0 "$
b0 $$
b0 +$
b0 .$
b0 0$
b0 2$
b0 4$
b0 T$
b10 V$
b1111 v$
b0 z$
0|$
0}$
0~$
b0 !%
0#%
b0 $%
0&%
0'%
b0 (%
0*%
0+%
0,%
b0 -%
0/%
b11 0%
b11 3%
b0 6%
b0 9%
b0 <%
b0 ?%
b11 B%
b11 E%
b0 H%
b0 K%
b0 N%
b100 Q%
b100 T%
b11 W%
b11 Z%
b0 ]%
b0 `%
b0 c%
b0 f%
b0 v%
0(&
1)&
0*&
$end
#3
1h#
b11 i#
b10 <%
b1 K%
#4
b0 f"
b0 r"
0h#
b0 i#
0k#
b0 <%
b0 K%
#5
b100 \"
b100 h"
b0 q#
0s#
b100 v#
b100 $$
#9
1X"
b1 H%
b1 ]%
#10
1F
b1000000000001100010000100 3"
1(&
#11
b1000000000110001010100100 3"
0X"
b0 H%
b0 ]%
#26
b0 \"
b0 h"
b0 v#
b0 $$
#27
b1 z$
1|$
1~$
b1 !%
b10 $%
1'%
b10 -%
1/%
b10 9%
b1 N%
b1 v%
#28
b11 z$
1}$
b11 !%
1#%
b1 c%
#29
b1 "$
b1 .$
b0 z$
0|$
0}$
0~$
b0 !%
0#%
b0 9%
b0 N%
b0 c%
#42
b0 l
00"
#48
b11 $%
1&%
b10 ?%
b1 N%
#49
b0 "$
b0 .$
b0 $%
0&%
0'%
b0 ?%
b0 N%
b0 v%
#50
b100 \"
b100 h"
b100 v#
b100 $$
b0 -%
0/%
#3471
b0 <#
b0 V$
#3473
b1000000 \"
b1000000 h"
b1000000 v#
b1000000 $$
#3474
b1 `#
1b#
1d#
b1 e#
b10 i#
1k#
b10 q#
1s#
b10 6%
b1 K%
b1 f%
#3475
b11 `#
1c#
b11 e#
1g#
b1 `%
#3476
b1 f"
b1 r"
b0 `#
0b#
0c#
0d#
b0 e#
0g#
b0 6%
b0 K%
b0 `%
#3477
1h#
b11 i#
b10 <%
b1 K%
#3478
b0 f"
b0 r"
0h#
b0 i#
0k#
b0 <%
b0 K%
b0 f%
#3479
b1000100 \"
b1000100 h"
b0 q#
0s#
b1000100 v#
b1000100 $$
#3502
b1000000 \"
b1000000 h"
b1000000 v#
b1000000 $$
#3503
b1 z$
1|$
1~$
b1 !%
b10 $%
1'%
b10 -%
1/%
b10 9%
b1 N%
b10 v%
#3504
b11 z$
1}$
b11 !%
1#%
b1 c%
#3505
b1 "$
b1 .$
b0 z$
0|$
0}$
0~$
b0 !%
0#%
b0 9%
b0 N%
b0 c%
#3506
b11 $%
1&%
b10 ?%
b1 N%
#3507
b0 "$
b0 .$
b0 $%
0&%
0'%
b0 ?%
b0 N%
b0 v%
#3508
b1000100 \"
b1000100 h"
b1000100 v#
b1000100 $$
b0 -%
0/%
#3526
b10 <#
b10 V$
#3528
b0 \"
b0 h"
b0 v#
b0 $$
#3529
b1 `#
1b#
1d#
b1 e#
b10 i#
1k#
b10 q#
1s#
b10 6%
b1 K%
b10 f%
#3530
b11 `#
1c#
b11 e#
1g#
b1 `%
#3531
b1 f"
b1 r"
b0 `#
0b#
0c#
0d#
b0 e#
0g#
b0 6%
b0 K%
b0 `%
#3539
0F
#3540
b1000000000110001010100100 "
#3552
1h#
b11 i#
b10 <%
b1 K%
#3553
b0 f"
b0 r"
0h#
b0 i#
0k#
b0 <%
b0 K%
b0 f%
#3554
b100 \"
b100 h"
b0 q#
0s#
b100 v#
b100 $$
#3558
1X"
b1 H%
b1 ]%
#3559
1F
b1000000000000100011100100 3"
#3560
b1000000000010001011000100 3"
0X"
b0 H%
b0 ]%
#3574
b0 \"
b0 h"
b0 v#
b0 $$
#3575
b1 z$
1|$
1~$
b1 !%
b10 $%
1'%
b10 -%
1/%
b10 9%
b1 N%
b1 v%
#3576
b11 z$
1}$
b11 !%
1#%
b1 c%
#3577
b1 "$
b1 .$
b0 z$
0|$
0}$
0~$
b0 !%
0#%
b0 9%
b0 N%
b0 c%
#3590
b101101001100 l
10"
#3596
b11 $%
1&%
b10 ?%
b1 N%
#3597
b0 "$
b0 .$
b0 $%
0&%
0'%
b0 ?%
b0 N%
b0 v%
#3598
b100 \"
b100 h"
b100 v#
b100 $$
b0 -%
0/%
